COSE221/HW3/h3_output.vcd
$date
	Sat Jun 13 02:01:24 2020
$end
$version
	Icarus Verilog
$end
$timescale
	1s
$end
$scope module TOP $end
$var wire 23 ! x_test [0:22] $end
$var wire 3 " y_out [2:0] $end
$var reg 1 # CLOCK $end
$var reg 8 $ ascii_out [7:0] $end
$var reg 1 % t_reset $end
$var reg 1 & x_in $end
$var integer 32 ' answer_len [31:0] $end
$var integer 32 ( i [31:0] $end
$scope module DEC $end
$var wire 1 # clk $end
$var wire 1 % reset $end
$var wire 1 & x $end
$var wire 3 ) y [2:0] $end
$var reg 4 * next_state [3:0] $end
$var reg 4 + present_state [3:0] $end
$upscope $end
$upscope $end
$enddefinitions $end
#0
$dumpvars
bx +
bx *
bx )
b0 (
b0 '
x&
0%
bx $
1#
bx "
b11111011000110001001101 !
$end
#1
b101101 $
b0 "
b0 )
b1 *
b0 +
1%
#2
b111 *
0%
1&
#5
0#
#10
b101101 $
b0 "
b0 )
b1001 *
b111 +
1#
b1 (
b1 '
#15
0#
#20
b100 *
b1001 +
1#
b10 (
b10 '
#25
0#
#30
b1000100 $
b100 "
b100 )
b111 *
b100 +
1#
b11 (
b11 '
#35
0#
#40
b101101 $
b0 "
b0 )
b1001 *
b111 +
1#
b100 (
b100 '
#45
0#
#50
b100 *
b1001 +
1#
b101 (
b101 '
#52
b1010 *
0&
#55
0#
#60
b110 *
b1010 +
1#
b110 (
b110 '
#62
b101 *
1&
#65
0#
#70
b1000101 $
b101 "
b101 )
b111 *
b101 +
1#
b111 (
b111 '
#75
0#
#80
b101101 $
b0 "
b0 )
b1001 *
b111 +
1#
b1000 (
b1000 '
#82
b1000 *
0&
#85
0#
#90
b11 *
b1000 +
1#
b1001 (
b1001 '
#95
0#
#100
b1000011 $
b11 "
b11 )
b1 *
b11 +
1#
b1010 (
b1010 '
#105
0#
#110
b1000001 $
b1 "
b1 )
b1 +
1#
b1011 (
b1011 '
#112
b111 *
1&
#115
0#
#120
b101101 $
b0 "
b0 )
b1001 *
b111 +
1#
b1100 (
b1100 '
#125
0#
#130
b100 *
b1001 +
1#
b1101 (
b1101 '
#132
b1010 *
0&
#135
0#
#140
b110 *
b1010 +
1#
b1110 (
b1110 '
#145
0#
#150
b1000110 $
b110 "
b110 )
b1 *
b110 +
1#
b1111 (
b1111 '
#155
0#
#160
b1000001 $
b1 "
b1 )
b1 +
1#
b10000 (
b10000 '
#162
b111 *
1&
#165
0#
#170
b101101 $
b0 "
b0 )
b1001 *
b111 +
1#
b10001 (
b10001 '
#172
b1000 *
0&
#175
0#
#180
b11 *
b1000 +
1#
b10010 (
b10010 '
#185
0#
#190
b1000011 $
b11 "
b11 )
b1 *
b11 +
1#
b10011 (
b10011 '
#192
b111 *
1&
#195
0#
#200
b101101 $
b0 "
b0 )
b1001 *
b111 +
1#
b10100 (
b10100 '
#205
0#
#210
b100 *
b1001 +
1#
b10101 (
b10101 '
#212
b1010 *
0&
#215
0#
#220
b110 *
b1010 +
1#
b10110 (
b10110 '
#222
b101 *
1&
#225
0#
#230
b1000101 $
b101 "
b101 )
b111 *
b101 +
1#
b10111 (
b10111 '
#235
0#
#240
b101101 $
b0 "
b0 )
b1001 *
b111 +
1#
b11000 (
b11000 '
